<?xml version="1.0" encoding="UTF-8" standalone="no"?>
<!-- Created with Inkscape (http://www.inkscape.org/) -->

<svg
   xmlns:dc="http://purl.org/dc/elements/1.1/"
   xmlns:cc="http://creativecommons.org/ns#"
   xmlns:rdf="http://www.w3.org/1999/02/22-rdf-syntax-ns#"
   xmlns:svg="http://www.w3.org/2000/svg"
   xmlns="http://www.w3.org/2000/svg"
   xmlns:sodipodi="http://sodipodi.sourceforge.net/DTD/sodipodi-0.dtd"
   xmlns:inkscape="http://www.inkscape.org/namespaces/inkscape"
   width="348.57144"
   height="345.71429"
   viewBox="0 0 92.226192 91.470243"
   version="1.1"
   id="svg6222"
   sodipodi:docname="logo.svg"
   inkscape:export-filename="/home/d349cc25e/projects/repos/GeneHood/brand/logo.png"
   inkscape:export-xdpi="96"
   inkscape:export-ydpi="96"
   inkscape:version="0.92.4 (unknown)">
  <defs
     id="defs6216">
    <marker
       inkscape:stockid="TriangleOutM"
       orient="auto"
       refY="0"
       refX="0"
       id="TriangleOutM"
       style="overflow:visible"
       inkscape:isstock="true">
      <path
         id="path7269"
         d="M 5.77,0 -2.88,5 V -5 Z"
         style="fill:#000000;fill-opacity:1;fill-rule:evenodd;stroke:#000000;stroke-width:1.00000003pt;stroke-opacity:1"
         transform="scale(0.4)"
         inkscape:connector-curvature="0" />
    </marker>
    <marker
       inkscape:stockid="TriangleOutL"
       orient="auto"
       refY="0"
       refX="0"
       id="TriangleOutL"
       style="overflow:visible"
       inkscape:isstock="true">
      <path
         id="path7266"
         d="M 5.77,0 -2.88,5 V -5 Z"
         style="fill:#000000;fill-opacity:1;fill-rule:evenodd;stroke:#000000;stroke-width:1.00000003pt;stroke-opacity:1"
         transform="scale(0.8)"
         inkscape:connector-curvature="0" />
    </marker>
  </defs>
  <sodipodi:namedview
     id="base"
     pagecolor="#ffffff"
     bordercolor="#666666"
     borderopacity="1.0"
     inkscape:pageopacity="0.0"
     inkscape:pageshadow="2"
     inkscape:zoom="0.7"
     inkscape:cx="146.91987"
     inkscape:cy="156.80646"
     inkscape:document-units="mm"
     inkscape:current-layer="layer1"
     showgrid="false"
     fit-margin-top="0"
     fit-margin-left="0"
     fit-margin-bottom="0"
     fit-margin-right="0"
     units="px"
     inkscape:window-width="1299"
     inkscape:window-height="713"
     inkscape:window-x="67"
     inkscape:window-y="27"
     inkscape:window-maximized="1" />
  <metadata
     id="metadata6219">
    <rdf:RDF>
      <cc:Work
         rdf:about="">
        <dc:format>image/svg+xml</dc:format>
        <dc:type
           rdf:resource="http://purl.org/dc/dcmitype/StillImage" />
        <dc:title></dc:title>
      </cc:Work>
    </rdf:RDF>
  </metadata>
  <g
     inkscape:label="Layer 1"
     inkscape:groupmode="layer"
     id="layer1"
     transform="translate(-58.710041,-21.240629)">
    <rect
       style="fill:#ffffff;fill-opacity:1;stroke:none;stroke-width:1.61849225;stroke-linecap:butt;stroke-miterlimit:4;stroke-dasharray:none;stroke-opacity:1"
       id="rect7815"
       width="92.226196"
       height="91.470238"
       x="58.710041"
       y="21.240629" />
    <g
       id="g6311"
       style="stroke-width:0.1;stroke-miterlimit:4;stroke-dasharray:none"
       transform="translate(-0.07309299,0.05143504)">
      <g
         id="g7788"
         transform="matrix(4.0178416,0,0,4.0178416,-96.33143,-434.6574)">
        <path
           style="fill:none;stroke:#000000;stroke-width:0.60000002;stroke-linecap:round;stroke-linejoin:miter;stroke-miterlimit:4;stroke-dasharray:none;stroke-opacity:1"
           d="m 43.089284,134.65923 -2.929315,-1.98438 2.267857,-7.84301 3.118305,-1.79538"
           id="path6235"
           inkscape:connector-curvature="0" />
        <path
           style="fill:none;stroke:#000000;stroke-width:0.60000002;stroke-linecap:round;stroke-linejoin:miter;stroke-miterlimit:4;stroke-dasharray:none;stroke-opacity:1"
           d="m 57.077762,134.70903 2.929315,-1.98438 -2.267857,-7.84301 -3.118305,-1.79538"
           id="path6235-3"
           inkscape:connector-curvature="0" />
        <path
           style="fill:none;stroke:#000000;stroke-width:0.60000002;stroke-linecap:round;stroke-linejoin:miter;stroke-miterlimit:4;stroke-dasharray:none;stroke-opacity:1"
           d="m 47.341517,125.5878 -2.83482,-4.15774 2.551337,-5.00819 c 0,0 0.722546,-1.43935 2.856766,-1.45605"
           id="path6252"
           inkscape:connector-curvature="0"
           sodipodi:nodetypes="cccc" />
        <path
           style="fill:none;stroke:#000000;stroke-width:0.60000002;stroke-linecap:round;stroke-linejoin:miter;stroke-miterlimit:4;stroke-dasharray:none;stroke-opacity:1"
           d="m 52.488083,125.5878 2.83482,-4.15774 -2.551337,-5.00819 c 0,0 -0.488685,-1.43935 -2.856766,-1.45605"
           id="path6252-6"
           inkscape:connector-curvature="0"
           sodipodi:nodetypes="cccc" />
        <path
           sodipodi:nodetypes="ccc"
           style="fill:none;stroke:#000000;stroke-width:0.60000002;stroke-linecap:round;stroke-linejoin:miter;stroke-miterlimit:4;stroke-dasharray:none;stroke-opacity:1"
           d="m 46.488192,121.82153 2.305201,-2.18827 c 0,0 0.356696,-0.29967 1.169302,-0.30068"
           id="path6269"
           inkscape:connector-curvature="0" />
        <path
           sodipodi:nodetypes="ccc"
           style="fill:none;stroke:#000000;stroke-width:0.60000002;stroke-linecap:round;stroke-linejoin:miter;stroke-miterlimit:4;stroke-dasharray:none;stroke-opacity:1"
           d="m 53.437198,121.82153 -2.305201,-2.18827 c 0,0 -0.374414,-0.30558 -1.169302,-0.30068"
           id="path6269-7"
           inkscape:connector-curvature="0" />
        <path
           style="fill:none;stroke:#000000;stroke-width:0.60000002;stroke-linecap:round;stroke-linejoin:miter;stroke-miterlimit:4;stroke-dasharray:none;stroke-opacity:1"
           d="m 47.82454,121.55426 c 0,0 -0.200451,3.27405 2.104747,3.24064"
           id="path6286"
           inkscape:connector-curvature="0" />
        <path
           sodipodi:nodetypes="cc"
           style="fill:none;stroke:#000000;stroke-width:0.60000002;stroke-linecap:round;stroke-linejoin:miter;stroke-miterlimit:4;stroke-dasharray:none;stroke-opacity:1"
           d="m 52.034034,121.55426 c 0,0 0.206357,3.20909 -2.104747,3.24064"
           id="path6286-5"
           inkscape:connector-curvature="0" />
        <g
           transform="translate(2.7924866,6.6871081)"
           id="g7662">
          <g
             id="g7554"
             transform="matrix(0.48086049,0,0,0.625969,31.110533,51.122412)">
            <rect
               y="113.22834"
               x="29.666916"
               height="1.6704345"
               width="5.3453903"
               id="rect7506"
               style="stroke-width:1.36500001;stroke-linecap:butt;stroke-miterlimit:4;stroke-dasharray:none" />
            <path
               inkscape:transform-center-y="-0.0041559518"
               inkscape:transform-center-x="-0.46052532"
               d="m 34.468747,115.67133 0.0072,-1.60777 0.0072,-1.60778 1.388773,0.81012 1.388773,0.81012 -1.395969,0.79765 z"
               inkscape:randomized="0"
               inkscape:rounded="0"
               inkscape:flatsided="false"
               sodipodi:arg2="3.1460683"
               sodipodi:arg1="2.0988708"
               sodipodi:r2="0.92825669"
               sodipodi:r1="1.8565134"
               sodipodi:cy="114.06771"
               sodipodi:cx="35.40419"
               sodipodi:sides="3"
               id="path7508"
               style="stroke-width:1.36500001;stroke-linecap:butt;stroke-miterlimit:4;stroke-dasharray:none"
               sodipodi:type="star" />
          </g>
          <g
             style="stroke-width:0.1;stroke-miterlimit:4;stroke-dasharray:none"
             id="g7554-0"
             transform="matrix(0.4808605,0,0,0.625969,25.261455,50.122339)">
            <g
               id="g7587"
               transform="translate(3.4225219e-7,1.6704331)">
              <rect
                 style="stroke-width:1.91188586;stroke-linecap:butt;stroke-miterlimit:4;stroke-dasharray:none"
                 id="rect7506-9"
                 width="10.48668"
                 height="1.6704345"
                 x="29.666916"
                 y="113.22834" />
              <path
                 sodipodi:type="star"
                 style="stroke-width:1.36500001;stroke-linecap:butt;stroke-miterlimit:4;stroke-dasharray:none"
                 id="path7508-3"
                 sodipodi:sides="3"
                 sodipodi:cx="39.974194"
                 sodipodi:cy="113.99492"
                 sodipodi:r1="1.8565134"
                 sodipodi:r2="0.92825669"
                 sodipodi:arg1="2.0988708"
                 sodipodi:arg2="3.1460683"
                 inkscape:flatsided="false"
                 inkscape:rounded="0"
                 inkscape:randomized="0"
                 d="m 39.03875,115.59854 0.0072,-1.60778 0.0072,-1.60777 1.388773,0.81012 1.388773,0.81012 -1.395969,0.79765 z"
                 inkscape:transform-center-x="-0.46052532"
                 inkscape:transform-center-y="-0.0041559518" />
            </g>
          </g>
          <g
             style="stroke-width:0.1;stroke-miterlimit:4;stroke-dasharray:none"
             id="g7554-6"
             transform="matrix(0.4808605,0,0,0.625969,34.762076,51.122412)">
            <rect
               y="113.22834"
               x="29.666916"
               height="1.6704345"
               width="5.3453903"
               id="rect7506-0"
               style="stroke-width:1.36500001;stroke-linecap:butt;stroke-miterlimit:4;stroke-dasharray:none" />
            <path
               inkscape:transform-center-y="-0.0041559518"
               inkscape:transform-center-x="-0.46052532"
               d="m 34.468747,115.67133 0.0072,-1.60777 0.0072,-1.60778 1.388773,0.81012 1.388773,0.81012 -1.395969,0.79765 z"
               inkscape:randomized="0"
               inkscape:rounded="0"
               inkscape:flatsided="false"
               sodipodi:arg2="3.1460683"
               sodipodi:arg1="2.0988708"
               sodipodi:r2="0.92825669"
               sodipodi:r1="1.8565134"
               sodipodi:cy="114.06771"
               sodipodi:cx="35.40419"
               sodipodi:sides="3"
               id="path7508-6"
               style="stroke-width:1.36500001;stroke-linecap:butt;stroke-miterlimit:4;stroke-dasharray:none"
               sodipodi:type="star" />
          </g>
        </g>
        <g
           transform="matrix(-1,0,0,1,81.955108,20.582688)"
           id="g7662-7"
           style="stroke-width:0.1;stroke-miterlimit:4;stroke-dasharray:none">
          <g
             id="g7554-5"
             transform="matrix(-0.48086049,0,0,0.625969,48.059009,40.297996)">
            <rect
               y="113.22834"
               x="29.666916"
               height="1.6704345"
               width="5.3453903"
               id="rect7506-92"
               style="stroke-width:1.36500001;stroke-linecap:butt;stroke-miterlimit:4;stroke-dasharray:none" />
            <path
               inkscape:transform-center-y="-0.0041559518"
               inkscape:transform-center-x="-0.46052532"
               d="m 34.468747,115.67133 0.0072,-1.60777 0.0072,-1.60778 1.388773,0.81012 1.388773,0.81012 -1.395969,0.79765 z"
               inkscape:randomized="0"
               inkscape:rounded="0"
               inkscape:flatsided="false"
               sodipodi:arg2="3.1460683"
               sodipodi:arg1="2.0988708"
               sodipodi:r2="0.92825669"
               sodipodi:r1="1.8565134"
               sodipodi:cy="114.06771"
               sodipodi:cx="35.40419"
               sodipodi:sides="3"
               id="path7508-2"
               style="stroke-width:1.36500001;stroke-linecap:butt;stroke-miterlimit:4;stroke-dasharray:none"
               sodipodi:type="star" />
          </g>
          <g
             style="stroke-width:0.1;stroke-miterlimit:4;stroke-dasharray:none"
             id="g7554-0-89"
             transform="matrix(0.4808605,0,0,0.625969,9.4979253,39.297923)">
            <g
               id="g7587-73"
               transform="translate(3.4225219e-7,1.6704331)">
              <rect
                 style="stroke-width:1.91188586;stroke-linecap:butt;stroke-miterlimit:4;stroke-dasharray:none"
                 id="rect7506-9-6"
                 width="10.48668"
                 height="1.6704345"
                 x="29.666916"
                 y="113.22834" />
              <path
                 sodipodi:type="star"
                 style="stroke-width:1.36500001;stroke-linecap:butt;stroke-miterlimit:4;stroke-dasharray:none"
                 id="path7508-3-1"
                 sodipodi:sides="3"
                 sodipodi:cx="39.974194"
                 sodipodi:cy="113.99492"
                 sodipodi:r1="1.8565134"
                 sodipodi:r2="0.92825669"
                 sodipodi:arg1="2.0988708"
                 sodipodi:arg2="3.1460683"
                 inkscape:flatsided="false"
                 inkscape:rounded="0"
                 inkscape:randomized="0"
                 d="m 39.03875,115.59854 0.0072,-1.60778 0.0072,-1.60777 1.388773,0.81012 1.388773,0.81012 -1.395969,0.79765 z"
                 inkscape:transform-center-x="-0.46052532"
                 inkscape:transform-center-y="-0.0041559518" />
            </g>
          </g>
          <g
             style="stroke-width:0.1;stroke-miterlimit:4;stroke-dasharray:none"
             id="g7554-6-2"
             transform="matrix(-0.4808605,0,0,0.625969,51.710553,40.297996)">
            <rect
               y="113.22834"
               x="29.666916"
               height="1.6704345"
               width="5.3453903"
               id="rect7506-0-9"
               style="stroke-width:1.36500001;stroke-linecap:butt;stroke-miterlimit:4;stroke-dasharray:none" />
            <path
               inkscape:transform-center-y="-0.0041559518"
               inkscape:transform-center-x="-0.46052532"
               d="m 34.468747,115.67133 0.0072,-1.60777 0.0072,-1.60778 1.388773,0.81012 1.388773,0.81012 -1.395969,0.79765 z"
               inkscape:randomized="0"
               inkscape:rounded="0"
               inkscape:flatsided="false"
               sodipodi:arg2="3.1460683"
               sodipodi:arg1="2.0988708"
               sodipodi:r2="0.92825669"
               sodipodi:r1="1.8565134"
               sodipodi:cy="114.06771"
               sodipodi:cx="35.40419"
               sodipodi:sides="3"
               id="path7508-6-31"
               style="stroke-width:1.36500001;stroke-linecap:butt;stroke-miterlimit:4;stroke-dasharray:none"
               sodipodi:type="star" />
          </g>
        </g>
      </g>
    </g>
  </g>
</svg>
